\relax 
\@writefile{toc}{\contentsline {section}{\numberline {1}Definición}{1}{}\protected@file@percent }
\@writefile{lot}{\contentsline {table}{\numberline {1}{\ignorespaces Variables}}{1}{}\protected@file@percent }
\newlabel{tab:}{{1}{1}{}{}{}}
\@writefile{lof}{\contentsline {figure}{\numberline {1}{\ignorespaces Frontal emulación LabView}}{2}{}\protected@file@percent }
\newlabel{fig:Frontal emulación LabView}{{1}{2}{}{}{}}
\@writefile{lof}{\contentsline {figure}{\numberline {2}{\ignorespaces Diagrama de bloques emulación labView}}{2}{}\protected@file@percent }
\newlabel{fig:Diagrama de bloques emulación labView}{{2}{2}{}{}{}}
\gdef \@abspage@last{2}
